[gd_scene load_steps=5 format=3 uid="uid://bpkphu8qj137m"]

[ext_resource type="Texture2D" uid="uid://cbtb2r3fwpb3s" path="res://New folder (3)/6.png" id="1_gs1p0"]
[ext_resource type="Texture2D" uid="uid://dvo6ved2hv8sd" path="res://New folder (3)/2.png" id="2_2k6fa"]
[ext_resource type="Texture2D" uid="uid://cih8d6oeqxmdf" path="res://New folder (3)/3.png" id="3_2dh3l"]
[ext_resource type="Texture2D" uid="uid://bnklpoe55wfwk" path="res://New folder (3)/1.png" id="4_pbf2s"]

[node name="Bg" type="ParallaxBackground"]

[node name="Sprite2D" type="Sprite2D" parent="."]
texture = ExtResource("1_gs1p0")
centered = false

[node name="ParallaxLayer" type="ParallaxLayer" parent="."]
motion_scale = Vector2(0.6, 1)
motion_mirroring = Vector2(1152, 0)

[node name="Sprite2D" type="Sprite2D" parent="ParallaxLayer"]
texture = ExtResource("2_2k6fa")
centered = false

[node name="ParallaxLayer2" type="ParallaxLayer" parent="."]
motion_scale = Vector2(0.7, 1)
motion_mirroring = Vector2(1152, 0)

[node name="Sprite2D" type="Sprite2D" parent="ParallaxLayer2"]
texture = ExtResource("3_2dh3l")
centered = false

[node name="ParallaxLayer3" type="ParallaxLayer" parent="."]
motion_scale = Vector2(0.8, 1)
motion_mirroring = Vector2(1152, 0)

[node name="Sprite2D" type="Sprite2D" parent="ParallaxLayer3"]
texture = ExtResource("4_pbf2s")
centered = false
