[gd_scene load_steps=5 format=3 uid="uid://dojd7oc6g8kee"]

[ext_resource type="Texture2D" uid="uid://cr7ol2xguu3un" path="res://bg/Screenshot 2024-07-08 230915.png" id="1_tqvec"]
[ext_resource type="Texture2D" uid="uid://d33k4cjmec3dj" path="res://bg/Screenshot_2024-07-08_230931-removebg-preview.png" id="2_m6nt4"]
[ext_resource type="Texture2D" uid="uid://c6djk63gimoyo" path="res://bg/Screenshot_2024-07-08_230944-removebg-preview.png" id="3_hfbnt"]
[ext_resource type="Texture2D" uid="uid://q6l2l1mbstr5" path="res://bg/Screenshot_2024-07-08_230958-removebg-preview.png" id="4_lk0u4"]

[node name="bg" type="ParallaxBackground"]

[node name="Sprite2D" type="Sprite2D" parent="."]
texture = ExtResource("1_tqvec")
centered = false

[node name="ParallaxLayer" type="ParallaxLayer" parent="."]
motion_scale = Vector2(0.6, 1)
motion_mirroring = Vector2(449, 0)

[node name="Sprite2D" type="Sprite2D" parent="ParallaxLayer"]
texture = ExtResource("2_m6nt4")
centered = false

[node name="ParallaxLayer2" type="ParallaxLayer" parent="."]
motion_scale = Vector2(0.6, 1)
motion_mirroring = Vector2(449, 0)

[node name="Sprite2D" type="Sprite2D" parent="ParallaxLayer2"]
texture = ExtResource("3_hfbnt")
centered = false

[node name="Sprite2D2" type="Sprite2D" parent="."]
texture = ExtResource("4_lk0u4")
centered = false
