[gd_scene load_steps=5 format=3 uid="uid://b0i06ofl4scqf"]

[ext_resource type="Texture2D" uid="uid://bwcropuq04c40" path="res://pixelated background/6.png" id="1_6fmrd"]
[ext_resource type="Texture2D" uid="uid://dlh74n1bk3q6k" path="res://pixelated background/1.png" id="2_u37w2"]
[ext_resource type="Texture2D" uid="uid://dw073wpl43i5d" path="res://pixelated background/2.png" id="3_vbnpo"]
[ext_resource type="Texture2D" uid="uid://cih8d6oeqxmdf" path="res://New folder (3)/3.png" id="4_3ftxc"]

[node name="Bg" type="ParallaxBackground"]

[node name="Sprite2D" type="Sprite2D" parent="."]
texture = ExtResource("1_6fmrd")
centered = false

[node name="ParallaxLayer" type="ParallaxLayer" parent="."]
motion_scale = Vector2(0.6, 1)
motion_mirroring = Vector2(1152, 0)

[node name="Sprite2D" type="Sprite2D" parent="ParallaxLayer"]
texture = ExtResource("2_u37w2")
centered = false

[node name="ParallaxLayer2" type="ParallaxLayer" parent="."]
motion_scale = Vector2(0.7, 1)
motion_mirroring = Vector2(1152, 0)

[node name="Sprite2D" type="Sprite2D" parent="ParallaxLayer2"]
texture = ExtResource("3_vbnpo")
centered = false

[node name="ParallaxLayer3" type="ParallaxLayer" parent="."]
motion_scale = Vector2(0.8, 1)
motion_mirroring = Vector2(1152, 0)

[node name="Sprite2D" type="Sprite2D" parent="ParallaxLayer3"]
texture = ExtResource("4_3ftxc")
centered = false
