[gd_scene load_steps=4 format=3 uid="uid://ci2jm2337cbf7"]

[ext_resource type="Texture2D" uid="uid://b6axrhrcbnrep" path="res://bg of volcano theme (1)[1]/volcano boom.png" id="1_es4j7"]

[sub_resource type="CircleShape2D" id="CircleShape2D_ct6xe"]
radius = 69.1158

[sub_resource type="RectangleShape2D" id="RectangleShape2D_dh5qk"]
size = Vector2(96.75, 39.75)

[node name="Barrel" type="Area2D"]

[node name="Sprite2D" type="Sprite2D" parent="."]
texture_filter = 1
position = Vector2(32, 54)
scale = Vector2(1.48061, 1.33972)
texture = ExtResource("1_es4j7")

[node name="CollisionShape2D" type="CollisionShape2D" parent="."]
texture_filter = 1
position = Vector2(15, 32)
shape = SubResource("CircleShape2D_ct6xe")

[node name="CollisionShape2D2" type="CollisionShape2D" parent="."]
texture_filter = 1
position = Vector2(2, 94)
shape = SubResource("RectangleShape2D_dh5qk")
